%YAML 1.1
%TAG !u! tag:unity3d.com,2011:
--- !u!114 &11400000
MonoBehaviour:
  m_ObjectHideFlags: 0
  m_PrefabParentObject: {fileID: 0}
  m_PrefabInternal: {fileID: 0}
  m_GameObject: {fileID: 0}
  m_Enabled: 1
  m_EditorHideFlags: 0
  m_Script: {fileID: 11500000, guid: f6cc665d8f4824635820c3d72582ffdd, type: 3}
  m_Name: Authentic Sky - Stratocumulus
  m_EditorClassIdentifier: 
  Parameter:
    VolumeTexture: {fileID: 11700000, guid: 8a3769d6c92258a45b8a1c8840707eb5, type: 2}
    Tiling: {x: 2, y: 2}
    Octave: 13.8
    Sculpture: 0.559
    Phase: -0.93
    DetailDistance: 2254
    Renderer: 4
    Ramp: 0
    RampTexture: {fileID: 0}
    RampScale: 0
    RampOffset: 0
    RampStrength: 0
    Softness: 0.637
    Density: 0.35
    Dissolve: 0
    Transparency: 0
    Scale: 7.7
    ScrollVelocity: {x: 800, y: 0, z: 800}
    Lighting: 0.813
    DirectLight: 0.43
    Ambient: 1
    LightingQuality: 0.145
    LightSmoothness: 0.326
    LightScattering: 0.383
    Shading: 0.489
    EdgeLighting: 0.466
    GlobalLighting: 0.03
    GlobalLightingRange: 0.909
    Shadow: 1
    ShadowSoftness: 0.032
    ShadowQuality: 0.155
    ShadowStrength: 1
    ShadowThreshold: 0
    VolumetricShadow: 0
    VolumetricShadowDensity: 0
    VolumetricShadowStrength: 0
    Brightness: 0
    Contrast: 0
    Horizontal: 1
    RelativeHeight: 0
    HorizontalSoftnessTop: 1
    HorizontalSoftnessBottom: 0.669
    HorizontalSoftnessFigure: 0.534
    FromHeight: 1207
    ToHeight: 2172.156
    Thickness: 1048
    FromDistance: 0
    MaxDistance: 60000
    Iteration: 100
    Fade: 1.05
    Optimize: 0.317
    HeightFog: 1
    GroundHeight: 49
    HeightFogFromDistance: 4821
    HeightFogRange: 1000
